{
    "@class": "com.kony.gen.viz.model.container.KVizSegment2",
    "DNDConfig": null,
    "__parentReadjusting__": false,
    "_data_": [
        {
            "Copylbl0a1a0b464f64140": {
                "@class": "com.viz.ide.model.segment.SimpleTextSegmentData",
                "text": "Mon, Tue, Fri: 9am -5pm"
            },
            "btnGetStarted": {
                "@class": "com.viz.ide.model.segment.SimpleTextSegmentData",
                "text": "Choose Kim"
            },
            "imgProfile": {
                "@class": "com.viz.ide.model.segment.ImageSegmentData",
                "src": "chooseyouagent.png"
            },
            "imgagent": {
                "src": "agent.png"
            },
            "lbl1": {
                "@class": "com.viz.ide.model.segment.SimpleTextSegmentData",
                "text": "Home Lending"
            },
            "lbl2": {
                "@class": "com.viz.ide.model.segment.SimpleTextSegmentData",
                "text": "Wealth Management"
            },
            "lblArea": {
                "@class": "com.viz.ide.model.segment.SimpleTextSegmentData",
                "text": "Portland, OR"
            },
            "lblDes": {
                "@class": "com.viz.ide.model.segment.SimpleTextSegmentData",
                "text": "I have been in banking for the last two years and have had over ten years of experience in customer service. I love helping people with their finances and ensuring they get the best services."
            },
            "lblExpertise": {
                "@class": "com.viz.ide.model.segment.SimpleTextSegmentData",
                "text": "Expertise : "
            },
            "lblFav": {
                "@class": "com.viz.ide.model.segment.SimpleTextSegmentData",
                "text": "Traveller ✈  Foodie 🍕 Love my kids 👨‍👩‍👧‍👦"
            },
            "lblHrs": {
                "@class": "com.viz.ide.model.segment.SimpleTextSegmentData",
                "text": "Hours :"
            },
            "lblNMLS": {
                "@class": "com.viz.ide.model.segment.SimpleTextSegmentData",
                "text": "NMLS 192938"
            },
            "lblName": {
                "@class": "com.viz.ide.model.segment.SimpleTextSegmentData",
                "text": "Kim Conners"
            }
        },
        {
            "Copylbl0a1a0b464f64140": {
                "@class": "com.viz.ide.model.segment.SimpleTextSegmentData",
                "text": "Mon, Tue, Fri: 9am -5pm"
            },
            "btnGetStarted": {
                "@class": "com.viz.ide.model.segment.SimpleTextSegmentData",
                "text": "Choose Jean"
            },
            "imgProfile": {
                "@class": "com.viz.ide.model.segment.ImageSegmentData",
                "src": "chooseyouagent2.png"
            },
            "imgagent": {
                "src": "agent1.png"
            },
            "lbl1": {
                "@class": "com.viz.ide.model.segment.SimpleTextSegmentData",
                "text": "Home Lending"
            },
            "lbl2": {
                "@class": "com.viz.ide.model.segment.SimpleTextSegmentData",
                "text": "Wealth Management"
            },
            "lblArea": {
                "@class": "com.viz.ide.model.segment.SimpleTextSegmentData",
                "text": "Portland, OR"
            },
            "lblDes": {
                "@class": "com.viz.ide.model.segment.SimpleTextSegmentData",
                "text": "I have been in banking for the last two years and have had over ten years of experience in customer service. I love helping people with their finances and ensuring they get the best services."
            },
            "lblExpertise": {
                "@class": "com.viz.ide.model.segment.SimpleTextSegmentData",
                "text": "Expertise : "
            },
            "lblFav": {
                "@class": "com.viz.ide.model.segment.SimpleTextSegmentData",
                "text": "I love helping you save money 💸"
            },
            "lblHrs": {
                "@class": "com.viz.ide.model.segment.SimpleTextSegmentData",
                "text": "Hours :"
            },
            "lblNMLS": {
                "@class": "com.viz.ide.model.segment.SimpleTextSegmentData",
                "text": "NMLS 192938"
            },
            "lblName": {
                "@class": "com.viz.ide.model.segment.SimpleTextSegmentData",
                "text": "Jean Marcus"
            }
        }
    ],
    "_height_": {
        "type": "string",
        "value": "100%"
    },
    "_indicator_": "none",
    "_margin_": [
        0,
        0,
        0,
        0
    ],
    "_orientation_": 2,
    "_padding_": [
        0,
        0,
        0,
        0
    ],
    "_top_": {
        "type": "string",
        "value": "0%"
    },
    "_width_": {
        "type": "string",
        "value": "95%"
    },
    "android": {
        "viewType": "coverflow"
    },
    "autogrowmode": 0,
    "canUpdateUI": true,
    "centerx": {
        "type": "string",
        "value": "50%"
    },
    "containerweight": 100,
    "counter": "01",
    "focusedindex": null,
    "focuseditem": null,
    "groupcells": false,
    "hasSections": false,
    "hiddencolumns": {
        "imgagent": "image"
    },
    "id": "segAgent",
    "info": null,
    "ipad": {
        "psp": {
            "indicator": "rowselect"
        }
    },
    "iphone": {
        "psp": {
            "indicator": "rowselect"
        },
        "viewConfig": {
            "linearConfig": {
                "isCircular": false
            }
        },
        "viewType": "linear"
    },
    "iscustomlayout": false,
    "isvisible": true,
    "kuid": "b06735cdf4a746929560bfd05ab0b883",
    "masterdata": {},
    "name": "kony.ui.SegmentedUI2",
    "needpageindicator": true,
    "pageoffdotimage": "pageoffdot.png",
    "pageondotimage": "pageondot.png",
    "paginationconfig": {
        "position": "bottom",
        "vdistance": 1
    },
    "parent": "flxBelow",
    "pf": "frmChooseAgent",
    "retaincontentalignment": false,
    "retainflexpositionproperties": false,
    "retainselection": false,
    "rowTemplateId": "daebe64be69949ab8af6761fc4ca1505",
    "rowcounter": 1,
    "rowfocusskin": "s88e0e9aeadb44c6a1af99e4a7b83013",
    "rowskin": "s076b15a811249d9ac12fd73226d524a",
    "rowtemplate": "tempNew",
    "screenlevelwidget": false,
    "seccounter": 0,
    "sectionheaderskin": "sd8adc99b73e4b0aaf2bde0e42729d8c",
    "selectedRows": null,
    "selectedState": false,
    "selectedindex": null,
    "selectedindices": null,
    "selecteditems": null,
    "selectedsectionindex": 0,
    "selectionbehavior": "default",
    "selectionbehaviorconfig": null,
    "separatorcolor": "aaaaaa00",
    "separatorrequired": true,
    "separatorthickness": 1,
    "showscrollbars": false,
    "swipeContext": {
        "currentPage": 0,
        "imageWidth": 1125,
        "widthRatio": 0
    },
    "viewConfig": {
        "linearConfig": {
            "isCircular": false
        }
    },
    "viewtype": "pageview",
    "vizProps": {},
    "wType": "Segment",
    "widgetalignment": 5,
    "widgetdatamap": {
        "Copylbl0a1a0b464f64140": "Copylbl0a1a0b464f64140",
        "btnGetStarted": "btnGetStarted",
        "flxExpertise": "flxExpertise",
        "flxMain": "flxMain",
        "flxTiming": "flxTiming",
        "imgProfile": "imgProfile",
        "lbl1": "lbl1",
        "lbl2": "lbl2",
        "lblArea": "lblArea",
        "lblDes": "lblDes",
        "lblExpertise": "lblExpertise",
        "lblFav": "lblFav",
        "lblHrs": "lblHrs",
        "lblNMLS": "lblNMLS",
        "lblName": "lblName",
        "tempNew": "tempNew"
    },
    "zindex": 1
}