{
  "android": {
    "border_color": "9e9e9e02",
    "border_type": 0,
    "font_name": "default",
    "isForked": true
  },
  "androidwearos": {
    "border_color": "9e9e9e02",
    "border_type": 0,
    "font_name": "default",
    "isForked": true
  },
  "background_color": "ffffffff",
  "bg_type": "one",
  "border_color": "0000007f",
  "border_radius": 10,
  "border_style": "custom",
  "border_type": 0,
  "border_width": 1,
  "desktopweb": {
    "bottom_left_border_color": "0000007f",
    "bottom_left_border_style": "plain",
    "bottom_left_border_width": 1,
    "bottom_right_border_color": "0000007f",
    "bottom_right_border_style": "plain",
    "bottom_right_border_width": 1,
    "font_name": "Helvetica",
    "isForked": true,
    "shadow": {
      "br": 3,
      "color": "9e9e9eff",
      "inner": false,
      "nm": 0,
      "x": 0,
      "y": 0
    },
    "top_left_border_color": "0000007f",
    "top_left_border_style": "plain",
    "top_left_border_width": 1,
    "top_right_border_color": "0000007f",
    "top_right_border_style": "plain",
    "top_right_border_width": 1
  },
  "ipad": {
    "border_color": "9e9e9e02",
    "border_type": 0,
    "font_name": "System",
    "isForked": true,
    "shadow": {
      "br": 3,
      "color": "9e9e9eff",
      "inner": false,
      "nm": 0,
      "x": 0,
      "y": 0
    }
  },
  "iphone": {
    "border_color": "9e9e9e02",
    "border_type": 0,
    "font_name": "System",
    "isForked": true,
    "shadow": {
      "br": 3,
      "color": "9e9e9eff",
      "inner": false,
      "nm": 0,
      "x": 0,
      "y": 0
    }
  },
  "isDefaultSkin": false,
  "kiosk": {
    "border_color": "9e9e9e02",
    "border_type": 0,
    "font_name": "None",
    "isForked": true
  },
  "kuid": "s8e9a1696d574f9f9157634925c9dd71",
  "spaan": {
    "bottom_left_border_color": "0000007f",
    "bottom_left_border_style": "plain",
    "bottom_left_border_width": 1,
    "bottom_right_border_color": "0000007f",
    "bottom_right_border_style": "plain",
    "bottom_right_border_width": 1,
    "font_name": "Helvetica",
    "isForked": true,
    "shadow": {
      "br": 3,
      "color": "9e9e9eff",
      "inner": false,
      "nm": 0,
      "x": 0,
      "y": 0
    },
    "top_left_border_color": "0000007f",
    "top_left_border_style": "plain",
    "top_left_border_width": 1,
    "top_right_border_color": "0000007f",
    "top_right_border_style": "plain",
    "top_right_border_width": 1
  },
  "spaandroidtablet": {
    "bottom_left_border_color": "0000007f",
    "bottom_left_border_style": "plain",
    "bottom_left_border_width": 1,
    "bottom_right_border_color": "0000007f",
    "bottom_right_border_style": "plain",
    "bottom_right_border_width": 1,
    "font_name": "Helvetica",
    "isForked": true,
    "shadow": {
      "br": 3,
      "color": "9e9e9eff",
      "inner": false,
      "nm": 0,
      "x": 0,
      "y": 0
    },
    "top_left_border_color": "0000007f",
    "top_left_border_style": "plain",
    "top_left_border_width": 1,
    "top_right_border_color": "0000007f",
    "top_right_border_style": "plain",
    "top_right_border_width": 1
  },
  "spabb": {
    "bottom_left_border_color": "0000007f",
    "bottom_left_border_style": "plain",
    "bottom_left_border_width": 1,
    "bottom_right_border_color": "0000007f",
    "bottom_right_border_style": "plain",
    "bottom_right_border_width": 1,
    "font_name": "Helvetica",
    "isForked": true,
    "shadow": {
      "br": 3,
      "color": "9e9e9eff",
      "inner": false,
      "nm": 0,
      "x": 0,
      "y": 0
    },
    "top_left_border_color": "0000007f",
    "top_left_border_style": "plain",
    "top_left_border_width": 1,
    "top_right_border_color": "0000007f",
    "top_right_border_style": "plain",
    "top_right_border_width": 1
  },
  "spaip": {
    "bottom_left_border_color": "0000007f",
    "bottom_left_border_style": "plain",
    "bottom_left_border_width": 1,
    "bottom_right_border_color": "0000007f",
    "bottom_right_border_style": "plain",
    "bottom_right_border_width": 1,
    "font_name": "Helvetica",
    "isForked": true,
    "shadow": {
      "br": 3,
      "color": "9e9e9eff",
      "inner": false,
      "nm": 0,
      "x": 0,
      "y": 0
    },
    "top_left_border_color": "0000007f",
    "top_left_border_style": "plain",
    "top_left_border_width": 1,
    "top_right_border_color": "0000007f",
    "top_right_border_style": "plain",
    "top_right_border_width": 1
  },
  "spaipad": {
    "bottom_left_border_color": "0000007f",
    "bottom_left_border_style": "plain",
    "bottom_left_border_width": 1,
    "bottom_right_border_color": "0000007f",
    "bottom_right_border_style": "plain",
    "bottom_right_border_width": 1,
    "font_name": "Helvetica",
    "isForked": true,
    "shadow": {
      "br": 3,
      "color": "9e9e9eff",
      "inner": false,
      "nm": 0,
      "x": 0,
      "y": 0
    },
    "top_left_border_color": "0000007f",
    "top_left_border_style": "plain",
    "top_left_border_width": 1,
    "top_right_border_color": "0000007f",
    "top_right_border_style": "plain",
    "top_right_border_width": 1
  },
  "spawindowstablet": {
    "bottom_left_border_color": "0000007f",
    "bottom_left_border_style": "plain",
    "bottom_left_border_width": 1,
    "bottom_right_border_color": "0000007f",
    "bottom_right_border_style": "plain",
    "bottom_right_border_width": 1,
    "font_name": "Helvetica",
    "isForked": true,
    "shadow": {
      "br": 3,
      "color": "9e9e9eff",
      "inner": false,
      "nm": 0,
      "x": 0,
      "y": 0
    },
    "top_left_border_color": "0000007f",
    "top_left_border_style": "plain",
    "top_left_border_width": 1,
    "top_right_border_color": "0000007f",
    "top_right_border_style": "plain",
    "top_right_border_width": 1
  },
  "spawinphone8": {
    "bottom_left_border_color": "0000007f",
    "bottom_left_border_style": "plain",
    "bottom_left_border_width": 1,
    "bottom_right_border_color": "0000007f",
    "bottom_right_border_style": "plain",
    "bottom_right_border_width": 1,
    "font_name": "Helvetica",
    "isForked": true,
    "shadow": {
      "br": 3,
      "color": "9e9e9eff",
      "inner": false,
      "nm": 0,
      "x": 0,
      "y": 0
    },
    "top_left_border_color": "0000007f",
    "top_left_border_style": "plain",
    "top_left_border_width": 1,
    "top_right_border_color": "0000007f",
    "top_right_border_style": "plain",
    "top_right_border_width": 1
  },
  "tabrcandroid": {
    "border_color": "9e9e9e02",
    "border_type": 0,
    "font_name": "default",
    "isForked": true
  },
  "wType": "FlexContainer",
  "watchos": {
    "font_name": "System"
  },
  "windows8": {
    "border_color": "9e9e9e02",
    "border_type": 0,
    "font_name": "None",
    "isForked": true
  },
  "winphone8": {
    "border_color": "9e9e9e02",
    "border_type": 0,
    "font_name": "None",
    "isForked": true
  }
}