{
    "@class": "com.kony.gen.viz.model.component.KVizUserWidget",
    "DNDConfig": null,
    "__parentReadjusting__": false,
    "_android_": {},
    "_children_": [],
    "_height_": {
        "type": "string",
        "value": "300dp"
    },
    "_iphone_": {},
    "_left_": {
        "type": "string",
        "value": "0dp"
    },
    "_margin_": [
        0,
        0,
        0,
        0
    ],
    "_orientation_": 1,
    "_padding_": [
        0,
        0,
        0,
        0
    ],
    "_percent_": true,
    "_skin_": "s4c9d016b117411297a2683048a99713",
    "_spa_": {},
    "_spaan_": {},
    "_spabb_": {},
    "_spaip_": {},
    "_top_": {
        "type": "string",
        "value": "0dp"
    },
    "_vizProps_": {
        "hidewidgethierarchy": false
    },
    "_width_": {
        "type": "string",
        "value": "95%"
    },
    "areflexpropsreferenced": false,
    "autogrowmode": 0,
    "canUpdateUI": true,
    "centerx": {
        "type": "string",
        "value": "50%"
    },
    "clipbounds": true,
    "containerweight": 0,
    "dataDiffs": {
        "compSegHdrWithImgText": {
            "__events__": {},
            "__info__": {
                "isRoot": true,
                "kuid": "d7b56d4eb4144c3cb29825160a96881e",
                "srcKUID": "e1947ce99a754beeb018295299e0be52",
                "wType": "FlexContainer"
            },
            "isVisible": true
        },
        "segAccRecords": {
            "__events__": {
                "onRowClick": "AS_Segment_ae0e0b08f8d54894beb18bbc5c90e587"
            },
            "__info__": {
                "kuid": "g0641937918541d19314259401899676",
                "srcKUID": "b67d3ebc4ba44f0c9ab98eb6e9c4edcd",
                "wType": "Segment"
            },
            "data": {
                "mobile": [
                    [
                        {
                            "imgAccountType": {
                                "@class": "com.viz.ide.model.segment.ImageSegmentData",
                                "src": "money_icon.png"
                            },
                            "lblAccount": {
                                "@class": "com.viz.ide.model.segment.SimpleTextSegmentData",
                                "text": "Checking Accounts"
                            },
                            "lbllIne": {
                                "@class": "com.viz.ide.model.segment.SimpleTextSegmentData",
                                "text": ""
                            }
                        },
                        [
                            {
                                "imgBankLogo": {
                                    "@class": "com.viz.ide.model.segment.ImageSegmentData",
                                    "src": "acc_detailspic3.png"
                                },
                                "lblAccountName": {
                                    "@class": "com.viz.ide.model.segment.SimpleTextSegmentData",
                                    "text": "John's Checking....X5678"
                                },
                                "lblAvailableBalance": {
                                    "@class": "com.viz.ide.model.segment.SimpleTextSegmentData",
                                    "text": "Available Balance"
                                },
                                "lblBalance": {
                                    "@class": "com.viz.ide.model.segment.SimpleTextSegmentData",
                                    "text": "$23,456.77"
                                },
                                "lblBankName": {
                                    "@class": "com.viz.ide.model.segment.SimpleTextSegmentData",
                                    "text": "Bank of America"
                                },
                                "lbllIne": {
                                    "@class": "com.viz.ide.model.segment.SimpleTextSegmentData",
                                    "text": ""
                                }
                            },
                            {
                                "imgBankLogo": {
                                    "@class": "com.viz.ide.model.segment.ImageSegmentData",
                                    "src": "chase.png"
                                },
                                "lblAccountName": {
                                    "@class": "com.viz.ide.model.segment.SimpleTextSegmentData",
                                    "text": "Personal Checking....X4567"
                                },
                                "lblAvailableBalance": {
                                    "@class": "com.viz.ide.model.segment.SimpleTextSegmentData",
                                    "text": "Available Balance"
                                },
                                "lblBalance": {
                                    "@class": "com.viz.ide.model.segment.SimpleTextSegmentData",
                                    "text": "$10,456.32"
                                },
                                "lblBankName": {
                                    "@class": "com.viz.ide.model.segment.SimpleTextSegmentData",
                                    "text": "Chase Bank"
                                },
                                "lbllIne": {
                                    "@class": "com.viz.ide.model.segment.SimpleTextSegmentData",
                                    "text": ""
                                }
                            },
                            {
                                "imgBankLogo": {
                                    "@class": "com.viz.ide.model.segment.ImageSegmentData",
                                    "src": "citi.png"
                                },
                                "lblAccountName": {
                                    "@class": "com.viz.ide.model.segment.SimpleTextSegmentData",
                                    "text": "Sam's Checking....X9156"
                                },
                                "lblAvailableBalance": {
                                    "@class": "com.viz.ide.model.segment.SimpleTextSegmentData",
                                    "text": "Available Balance"
                                },
                                "lblBalance": {
                                    "@class": "com.viz.ide.model.segment.SimpleTextSegmentData",
                                    "text": "$12,345.45"
                                },
                                "lblBankName": {
                                    "@class": "com.viz.ide.model.segment.SimpleTextSegmentData",
                                    "text": "Citi Bank"
                                },
                                "lbllIne": {
                                    "@class": "com.viz.ide.model.segment.SimpleTextSegmentData",
                                    "text": ""
                                }
                            }
                        ]
                    ]
                ]
            }
        }
    },
    "enablescrolling": true,
    "id": "compSegHdrWithImgText",
    "info": null,
    "iscustomlayout": false,
    "isdatareferenced": false,
    "isvisible": true,
    "kuid": "d7b56d4eb4144c3cb29825160a96881e",
    "layouttype": 2,
    "masterType": 0,
    "name": "kony.ui.UserWidgetInstance",
    "parent": "flxPendingTransactions",
    "pf": "frmCheckDepositFrom",
    "retaincontentalignment": false,
    "retainflexpositionproperties": false,
    "retainflowhorizontalalignment": false,
    "snapgridsize": 10,
    "snaptogrid": true,
    "sourceUserWidget": "e1947ce99a754beeb018295299e0be52",
    "wType": "UserWidgetInstance"
}