{
  "android": {
    "background_color": "336591ff",
    "bg_type": "one",
    "border_color": "336591ff",
    "border_type": 0,
    "font_name": "SourceSansPro-SemiBold",
    "font_size": 100,
    "isForked": true
  },
  "androidwearos": {
    "background_color": "336591ff",
    "bg_type": "one",
    "border_color": "336591ff",
    "border_type": 0,
    "font_name": "SourceSansPro-SemiBold",
    "font_size": 100,
    "isForked": true
  },
  "background_gradient_bottom_color": "000000ff",
  "background_gradient_top_color": "0d3a6fff",
  "background_style": "vg",
  "bg_type": "two",
  "border_color": "ffffffff",
  "border_radius": 10,
  "border_style": "custom",
  "border_type": 0,
  "border_width": 1,
  "desktopweb": {
    "background_color": "336591ff",
    "bg_type": "one",
    "bottom_left_border_color": "ffffffff",
    "bottom_left_border_style": "plain",
    "bottom_left_border_width": 1,
    "bottom_right_border_color": "ffffffff",
    "bottom_right_border_style": "plain",
    "bottom_right_border_width": 1,
    "font_name": "Helvetica",
    "font_size": 100,
    "isForked": true,
    "top_left_border_color": "ffffffff",
    "top_left_border_style": "plain",
    "top_left_border_width": 1,
    "top_right_border_color": "ffffffff",
    "top_right_border_style": "plain",
    "top_right_border_width": 1
  },
  "fontSizeInPx": false,
  "font_color": "ffffffff",
  "font_name": "iphoneSystem",
  "font_size": 150,
  "font_style": "normal",
  "font_weight": "400",
  "ipad": {
    "background_color": "336591ff",
    "bg_type": "one",
    "border_color": "336591ff",
    "border_type": 0,
    "font_name": "System",
    "font_size": 100,
    "isForked": true
  },
  "iphone": {
    "background_color": "336591ff",
    "bg_type": "one",
    "border_color": "336591ff",
    "border_type": 0,
    "font_name": "SourceSansPro-SemiBold",
    "font_size": 100,
    "isForked": true
  },
  "isDefaultSkin": false,
  "kiosk": {
    "background_color": "336591ff",
    "bg_type": "one",
    "border_color": "336591ff",
    "border_type": 0,
    "font_name": "None",
    "font_size": 100,
    "isForked": true
  },
  "kuid": "s108a6d8e6e74fbcb3d43e7c81b1d96f",
  "spaan": {
    "background_color": "336591ff",
    "bg_type": "one",
    "bottom_left_border_color": "ffffffff",
    "bottom_left_border_style": "plain",
    "bottom_left_border_width": 1,
    "bottom_right_border_color": "ffffffff",
    "bottom_right_border_style": "plain",
    "bottom_right_border_width": 1,
    "font_name": "Helvetica",
    "font_size": 100,
    "isForked": true,
    "top_left_border_color": "ffffffff",
    "top_left_border_style": "plain",
    "top_left_border_width": 1,
    "top_right_border_color": "ffffffff",
    "top_right_border_style": "plain",
    "top_right_border_width": 1
  },
  "spaandroidtablet": {
    "background_color": "336591ff",
    "bg_type": "one",
    "bottom_left_border_color": "ffffffff",
    "bottom_left_border_style": "plain",
    "bottom_left_border_width": 1,
    "bottom_right_border_color": "ffffffff",
    "bottom_right_border_style": "plain",
    "bottom_right_border_width": 1,
    "font_name": "Helvetica",
    "font_size": 100,
    "isForked": true,
    "top_left_border_color": "ffffffff",
    "top_left_border_style": "plain",
    "top_left_border_width": 1,
    "top_right_border_color": "ffffffff",
    "top_right_border_style": "plain",
    "top_right_border_width": 1
  },
  "spabb": {
    "background_color": "336591ff",
    "bg_type": "one",
    "border_color": "336591ff",
    "border_type": 0,
    "bottom_left_border_color": "ffffffff",
    "bottom_left_border_style": "plain",
    "bottom_left_border_width": 1,
    "bottom_right_border_color": "ffffffff",
    "bottom_right_border_style": "plain",
    "bottom_right_border_width": 1,
    "font_name": "Helvetica",
    "font_size": 100,
    "isForked": true,
    "top_left_border_color": "ffffffff",
    "top_left_border_style": "plain",
    "top_left_border_width": 1,
    "top_right_border_color": "ffffffff",
    "top_right_border_style": "plain",
    "top_right_border_width": 1
  },
  "spaip": {
    "background_color": "336591ff",
    "bg_type": "one",
    "bottom_left_border_color": "ffffffff",
    "bottom_left_border_style": "plain",
    "bottom_left_border_width": 1,
    "bottom_right_border_color": "ffffffff",
    "bottom_right_border_style": "plain",
    "bottom_right_border_width": 1,
    "font_name": "Helvetica",
    "font_size": 100,
    "isForked": true,
    "top_left_border_color": "ffffffff",
    "top_left_border_style": "plain",
    "top_left_border_width": 1,
    "top_right_border_color": "ffffffff",
    "top_right_border_style": "plain",
    "top_right_border_width": 1
  },
  "spaipad": {
    "background_color": "336591ff",
    "bg_type": "one",
    "bottom_left_border_color": "ffffffff",
    "bottom_left_border_style": "plain",
    "bottom_left_border_width": 1,
    "bottom_right_border_color": "ffffffff",
    "bottom_right_border_style": "plain",
    "bottom_right_border_width": 1,
    "font_name": "Helvetica",
    "font_size": 100,
    "isForked": true,
    "top_left_border_color": "ffffffff",
    "top_left_border_style": "plain",
    "top_left_border_width": 1,
    "top_right_border_color": "ffffffff",
    "top_right_border_style": "plain",
    "top_right_border_width": 1
  },
  "spawindowstablet": {
    "background_color": "336591ff",
    "bg_type": "one",
    "bottom_left_border_color": "ffffffff",
    "bottom_left_border_style": "plain",
    "bottom_left_border_width": 1,
    "bottom_right_border_color": "ffffffff",
    "bottom_right_border_style": "plain",
    "bottom_right_border_width": 1,
    "font_name": "Helvetica",
    "font_size": 100,
    "isForked": true,
    "top_left_border_color": "ffffffff",
    "top_left_border_style": "plain",
    "top_left_border_width": 1,
    "top_right_border_color": "ffffffff",
    "top_right_border_style": "plain",
    "top_right_border_width": 1
  },
  "spawinphone8": {
    "background_color": "336591ff",
    "bg_type": "one",
    "bottom_left_border_color": "ffffffff",
    "bottom_left_border_style": "plain",
    "bottom_left_border_width": 1,
    "bottom_right_border_color": "ffffffff",
    "bottom_right_border_style": "plain",
    "bottom_right_border_width": 1,
    "font_name": "Helvetica",
    "font_size": 100,
    "isForked": true,
    "top_left_border_color": "ffffffff",
    "top_left_border_style": "plain",
    "top_left_border_width": 1,
    "top_right_border_color": "ffffffff",
    "top_right_border_style": "plain",
    "top_right_border_width": 1
  },
  "tabrcandroid": {
    "background_color": "336591ff",
    "bg_type": "one",
    "border_color": "336591ff",
    "border_type": 0,
    "font_name": "default",
    "font_size": 100,
    "isForked": true
  },
  "wType": "Button",
  "watchos": {
    "font_name": "System",
    "font_size": 100,
    "isForked": true
  },
  "windows8": {
    "background_color": "336591ff",
    "bg_type": "one",
    "border_color": "336591ff",
    "border_type": 0,
    "font_name": "None",
    "font_size": 100,
    "isForked": true
  },
  "winphone8": {
    "background_color": "336591ff",
    "bg_type": "one",
    "border_color": "336591ff",
    "border_type": 0,
    "font_name": "None",
    "font_size": 100,
    "isForked": true
  }
}