{
    "@class": "com.kony.gen.viz.model.component.KVizUserWidget",
    "DNDConfig": null,
    "__parentReadjusting__": false,
    "_children_": [],
    "_height_": {
        "type": "string",
        "value": "100%"
    },
    "_left_": {
        "type": "string",
        "value": "0dp"
    },
    "_margin_": [
        0,
        0,
        0,
        0
    ],
    "_orientation_": 1,
    "_padding_": [
        0,
        0,
        0,
        0
    ],
    "_percent_": true,
    "_render_": true,
    "_skin_": "s04078b24af64d8d80d6a847c01204a3",
    "_top_": {
        "type": "string",
        "value": "0dp"
    },
    "_width_": {
        "type": "string",
        "value": "120%"
    },
    "autogrowmode": 0,
    "canUpdateUI": true,
    "centerx": {
        "type": "string",
        "value": "50%"
    },
    "clipbounds": true,
    "containerweight": 0,
    "data": {
        "enableLegend": false,
        "legendFontSize": "0"
    },
    "enablescrolling": true,
    "id": "donutchart4",
    "info": null,
    "isvisible": true,
    "kuid": "j7240a87c41d42a282bc51e129625dcf",
    "layouttype": 2,
    "masterType": 1,
    "name": "kony.ui.UserWidgetInstance",
    "parent": "flxGroceries",
    "pf": "frmDashboardAggregated",
    "snapgridsize": 10,
    "snaptogrid": true,
    "sourceUserWidget": "u980e920650247cc9de0d36e28716afa",
    "wType": "UserWidgetInstance"
}