{
    "DNDConfig": null,
    "__parentReadjusting__": false,
    "_bottom_": {
        "type": "string",
        "value": "0dp"
    },
    "_height_": {
        "type": "string",
        "value": "100dp"
    },
    "_left_": {
        "type": "string",
        "value": "0dp"
    },
    "_margin_": [
        0,
        0,
        0,
        0
    ],
    "_orientation_": 6,
    "_padding_": [
        0,
        0,
        0,
        0
    ],
    "_percent_": true,
    "_skin_": "se2e6f2ba7c649fc8cd675055b9ed146",
    "_top_": {
        "type": "string",
        "value": "71dp"
    },
    "_width_": {
        "type": "string",
        "value": "88%"
    },
    "allboxes": [],
    "autogrowmode": 0,
    "canUpdateUI": true,
    "centerx": {
        "type": "string",
        "value": "50%"
    },
    "children": [
        "flxEntertainment",
        "flxRestaurants",
        "flxGroceries",
        "flxTravels"
    ],
    "clipbounds": false,
    "containerweight": 100,
    "enablescrolling": true,
    "id": "flxMonthlyCharts",
    "info": null,
    "iscustomlayout": false,
    "isvisible": true,
    "kuid": "d9d65035f9d047c987e90d4013ae2c07",
    "layouttype": 2,
    "name": "kony.ui.FlexContainer",
    "parent": "flxMonthlyBudget",
    "pf": "frmDashboardAggregated",
    "retaincontentalignment": false,
    "retainflexpositionproperties": false,
    "retainflowhorizontalalignment": false,
    "snapgridsize": 10,
    "snaptogrid": true,
    "wType": "FlexContainer",
    "widgetalignment": 1,
    "zindex": 1
}