{
    "@class": "com.kony.gen.viz.model.container.KVizSegment2",
    "DNDConfig": null,
    "__parentReadjusting__": false,
    "_data_": [
        [
            {
                "imgLogo": {
                    "@class": "com.viz.ide.model.segment.ImageSegmentData",
                    "src": "imagedrag.png"
                },
                "lblAccount": {
                    "@class": "com.viz.ide.model.segment.SimpleTextSegmentData",
                    "text": "Savings Accounts"
                },
                "lbllIne": {
                    "@class": "com.viz.ide.model.segment.SimpleTextSegmentData",
                    "text": ""
                }
            },
            [
                {
                    "imgBankLogo": {
                        "@class": "com.viz.ide.model.segment.ImageSegmentData",
                        "src": ""
                    },
                    "lblAccountName": {
                        "@class": "com.viz.ide.model.segment.SimpleTextSegmentData",
                        "text": "Linda's Savings"
                    },
                    "lblAvailableBalance": {
                        "@class": "com.viz.ide.model.segment.SimpleTextSegmentData",
                        "text": "Available Balance"
                    },
                    "lblBalance": {
                        "@class": "com.viz.ide.model.segment.SimpleTextSegmentData",
                        "text": "$2,346.67"
                    },
                    "lblBankName": {
                        "@class": "com.viz.ide.model.segment.SimpleTextSegmentData",
                        "text": "Chase Bank #7878"
                    },
                    "lbllIne": {
                        "@class": "com.viz.ide.model.segment.SimpleTextSegmentData",
                        "text": ""
                    }
                },
                {
                    "imgBankLogo": {
                        "@class": "com.viz.ide.model.segment.ImageSegmentData",
                        "src": ""
                    },
                    "lblAccountName": {
                        "@class": "com.viz.ide.model.segment.SimpleTextSegmentData",
                        "text": "DBX Savings"
                    },
                    "lblAvailableBalance": {
                        "@class": "com.viz.ide.model.segment.SimpleTextSegmentData",
                        "text": "Available Balance"
                    },
                    "lblBalance": {
                        "@class": "com.viz.ide.model.segment.SimpleTextSegmentData",
                        "text": "$7,867.55"
                    },
                    "lblBankName": {
                        "@class": "com.viz.ide.model.segment.SimpleTextSegmentData",
                        "text": "DBX Bank #1234"
                    },
                    "lbllIne": {
                        "@class": "com.viz.ide.model.segment.SimpleTextSegmentData",
                        "text": ""
                    }
                },
                {
                    "imgBankLogo": {
                        "@class": "com.viz.ide.model.segment.ImageSegmentData",
                        "src": ""
                    },
                    "lblAccountName": {
                        "@class": "com.viz.ide.model.segment.SimpleTextSegmentData",
                        "text": "John's Checking"
                    },
                    "lblAvailableBalance": {
                        "@class": "com.viz.ide.model.segment.SimpleTextSegmentData",
                        "text": "Available Balance"
                    },
                    "lblBalance": {
                        "@class": "com.viz.ide.model.segment.SimpleTextSegmentData",
                        "text": "$8,956.44"
                    },
                    "lblBankName": {
                        "@class": "com.viz.ide.model.segment.SimpleTextSegmentData",
                        "text": "Chase Bank #4567"
                    },
                    "lbllIne": {
                        "@class": "com.viz.ide.model.segment.SimpleTextSegmentData",
                        "text": ""
                    }
                }
            ]
        ]
    ],
    "_height_": {
        "type": "string",
        "value": "100%"
    },
    "_indicator_": "none",
    "_left_": {
        "type": "string",
        "value": "0dp"
    },
    "_margin_": [
        0,
        0,
        0,
        0
    ],
    "_orientation_": 2,
    "_padding_": [
        0,
        0,
        0,
        0
    ],
    "_top_": {
        "type": "string",
        "value": "0dp"
    },
    "_width_": {
        "type": "string",
        "value": "100%"
    },
    "autogrowmode": 0,
    "canUpdateUI": true,
    "containerweight": 100,
    "counter": "02",
    "focusedindex": null,
    "focuseditem": null,
    "groupcells": false,
    "hasSections": true,
    "id": "segSavingsAccount",
    "info": null,
    "ipad": {
        "psp": {
            "indicator": "rowselect"
        }
    },
    "iphone": {
        "psp": {
            "indicator": "none"
        }
    },
    "iscustomlayout": false,
    "isvisible": true,
    "kuid": "ee41c981eb11467b8dff8a58804b7a23",
    "masterdata": {},
    "name": "kony.ui.SegmentedUI2",
    "needpageindicator": true,
    "pageoffdotimage": "pageoffdot.png",
    "pageondotimage": "pageondot.png",
    "paginationconfig": {
        "position": "bottom"
    },
    "parent": "flxSegmentSavings",
    "pf": "frmDashboardAggregated",
    "retaincontentalignment": false,
    "retainflexpositionproperties": false,
    "retainselection": false,
    "rowTemplateId": "d7505adc478b4788b7179e4023179058",
    "rowcounter": 2,
    "rowfocusskin": "s1c67e62a7bc46369ef5bbac98760424",
    "rowskin": "sd6017c10de844b9a22f4d2553aa9b5f",
    "rowtemplate": "flxAccounts",
    "screenlevelwidget": false,
    "seccounter": 0,
    "sectionHeaderTemplateId": "cbe4a0b6933e4ca88ec78e7501bfe353",
    "sectionheaderskin": "s48123dd94a943dab30eff460de65074",
    "sectionheadertemplate": "flxSegHeader",
    "selectedRows": null,
    "selectedState": false,
    "selectedindex": null,
    "selectedindices": null,
    "selecteditems": null,
    "selectedsectionindex": 0,
    "selectionbehavior": "default",
    "separatorcolor": "ededed00",
    "separatorrequired": true,
    "separatorthickness": 1,
    "showscrollbars": false,
    "viewtype": "tableview",
    "vizProps": {},
    "wType": "Segment",
    "widgetalignment": 5,
    "widgetdatamap": {
        "flxAccounts": "flxAccounts",
        "flxSegHeader": "flxSegHeader",
        "imgBankLogo": "imgBankLogo",
        "imgLogo": "imgLogo",
        "lblAccount": "lblAccount",
        "lblAccountName": "lblAccountName",
        "lblAvailableBalance": "lblAvailableBalance",
        "lblBalance": "lblBalance",
        "lblBankName": "lblBankName",
        "lbllIne": "lbllIne"
    },
    "zindex": 1
}