{
    "@class": "com.kony.gen.viz.model.component.KVizButton",
    "DNDConfig": null,
    "__parentReadjusting__": false,
    "_height_": {
        "type": "string",
        "value": "50dp"
    },
    "_margin_": [
        6,
        6,
        6,
        6
    ],
    "_padding_": [
        0,
        0,
        0,
        0
    ],
    "_skin_": "s51c27b783cc4dfda40330761d6d07d3",
    "_text_": "Continue",
    "_top_": {
        "type": "string",
        "value": "340dp"
    },
    "_width_": {
        "type": "string",
        "value": "80%"
    },
    "canUpdateUI": true,
    "centerx": {
        "type": "string",
        "value": "50%"
    },
    "containerweight": 100,
    "contentalignment": 5,
    "displaytext": true,
    "focusskin": "s873f377f2d9402f89591606d863e780",
    "id": "bnContinue",
    "info": null,
    "iscustomlayout": false,
    "isvisible": true,
    "kuid": "g728d445e4a6463885b8c37a7d8eeb55",
    "name": "kony.ui.Button",
    "onclick": "AS_Button_h896e47f96464e30ac5654b013415b35",
    "parent": "flxSendPayments",
    "pf": "frmSendPPPayments",
    "retaincontentalignment": false,
    "retainflexpositionproperties": false,
    "wType": "Button",
    "zindex": 1
}