{
    "AS_Camera_j656ce0f116646a7a1c4c3b151099e85": {
        "id": "AS_Camera_j656ce0f116646a7a1c4c3b151099e85",
        "type": "ACTION_SEQUENCE",
        "params": [{
            "datatype": "collection",
            "name": "eventobject"
        }],
        "contextObj": {
            "name": "frmCapture",
            "type": "forms",
            "platform": "",
            "KUID": "b3877910a38d4f6a8d961a044daac394"
        },
        "language": "js",
        "actions": [{
            "id": "NAVIGATE_TO_FORM___c53d69d8d6f5441bb8f2b8818082b87f",
            "type": "NAVIGATE_TO_FORM",
            "formId": "frmCheck1",
            "formKUID": "dbada0c5669f451aa467cf226c687770",
            "mappings": {},
            "mappingsOrder": [],
            "parentId": "",
            "callbackType": null,
            "enableMappingEditor": true,
            "package": "",
            "navigationObj": "{\n    \"_meta_\": {\n        \"eventName\": \"onCapture\",\n        \"widgetId\": \"CamManual\"\n    }\n}",
            "isCustomInput": false
        }]
    }
}