{
    "AS_FlexContainer_hf863925236149158baffc1c70f73afa": {
        "id": "AS_FlexContainer_hf863925236149158baffc1c70f73afa",
        "type": "ACTION_SEQUENCE",
        "params": [{
            "datatype": "collection",
            "name": "eventobject"
        }],
        "contextObj": {
            "name": "frmDashboardAggregated",
            "type": "forms",
            "platform": "",
            "KUID": "ea86369dacd6416e998c3919eb3f15fc"
        },
        "language": "js",
        "actions": [{
            "id": "NAVIGATE_TO_FORM___jdb503802797424aaa4e39c9706ec369",
            "type": "NAVIGATE_TO_FORM",
            "formId": "frmApplyNewAccount",
            "formKUID": "ab3697e82ea048a7a9a9ac725122e4b4",
            "mappings": {},
            "mappingsOrder": [],
            "parentId": "",
            "callbackType": null,
            "enableMappingEditor": true,
            "package": "NewAccount",
            "navigationObj": "{\n    \"_meta_\": {\n        \"eventName\": \"onClick\",\n        \"widgetId\": \"flxOpenNewAccount\"\n    }\n}",
            "isCustomInput": false
        }]
    }
}