{
    "AS_Form_b7c8fdff57fd45428a3bd09ecbcd67d8": {
        "id": "AS_Form_b7c8fdff57fd45428a3bd09ecbcd67d8",
        "type": "ACTION_SEQUENCE",
        "params": [{
            "datatype": "collection",
            "name": "eventobject"
        }],
        "contextObj": {
            "KUID": "fb6e88e7d7c94c68aa13478d43b174b5",
            "name": "frmGetstarted",
            "platform": "",
            "type": "forms"
        },
        "language": "js",
        "actions": [{
            "id": "ADD_SNIPPET__e6e7f932f48c44fdbabb54600d03ee24",
            "type": "ADD_SNIPPET",
            "codeSnippet": "this.view.segIntro.pageSkin=\"sknSegffffff\";",
            "parentId": null,
            "callbackType": null
        }]
    }
}