{
    "AS_FlexContainer_dbfa671ae9844accb8b5f5ab9b53c344": {
        "id": "AS_FlexContainer_dbfa671ae9844accb8b5f5ab9b53c344",
        "type": "ACTION_SEQUENCE",
        "params": [{
            "datatype": "collection",
            "name": "eventobject"
        }],
        "contextObj": {
            "name": "frmTransferAmount",
            "type": "forms",
            "platform": "",
            "KUID": "bde094f32c7948fcbd820b6474393e73"
        },
        "language": "js",
        "actions": [{
            "id": "ADD_SNIPPET__fa1b7c408ad6498f99586a8c0dd7ca4e",
            "type": "ADD_SNIPPET",
            "codeSnippet": "///",
            "parentId": null,
            "callbackType": null
        }]
    }
}