{
    "AS_FlexContainer_f1554a789da044009c66c22cb8dfc1e2": {
        "id": "AS_FlexContainer_f1554a789da044009c66c22cb8dfc1e2",
        "type": "ACTION_SEQUENCE",
        "params": [{
            "datatype": "collection",
            "name": "eventobject"
        }],
        "contextObj": {
            "name": "frmNAOVerify",
            "type": "forms",
            "platform": null,
            "KUID": "b9b4662bb68a41f5b9943b71a687ca61"
        },
        "language": "js",
        "actions": [{
            "id": "NAVIGATE_TO_FORM___e02ea80999d545eb99ce00f2a22443cd",
            "type": "NAVIGATE_TO_FORM",
            "formId": "frmApplyNewAccount",
            "formKUID": "ab3697e82ea048a7a9a9ac725122e4b4",
            "mappings": {},
            "mappingsOrder": [],
            "parentId": "",
            "callbackType": null,
            "enableMappingEditor": true,
            "package": "NewAccount",
            "navigationObj": "{\n    \"_meta_\": {\n        \"eventName\": \"onClick\",\n        \"widgetId\": \"flxBack\"\n    }\n}",
            "isCustomInput": false
        }]
    }
}