{
    "AS_FlexContainer_g913eb538f2942c299eec011b84c1cf4": {
        "id": "AS_FlexContainer_g913eb538f2942c299eec011b84c1cf4",
        "type": "ACTION_SEQUENCE",
        "params": [{
            "datatype": "collection",
            "name": "eventobject"
        }],
        "contextObj": {
            "name": "frmCheckDepositEnterAmount",
            "type": "forms",
            "platform": "",
            "KUID": "a57ab1a0ef0d4a4a8505557b6fcba2a6"
        },
        "language": "js",
        "actions": [{
            "id": "ADD_SNIPPET__b70d47625d854147b31a249a0ea96775",
            "type": "ADD_SNIPPET",
            "codeSnippet": "///",
            "parentId": null,
            "callbackType": null
        }]
    }
}