{
    "AS_FlexContainer_h93e632e57334359a02f3b5d45772317": {
        "id": "AS_FlexContainer_h93e632e57334359a02f3b5d45772317",
        "type": "ACTION_SEQUENCE",
        "params": [{
            "datatype": "collection",
            "name": "eventobject"
        }],
        "language": "js",
        "actions": [{
            "id": "NAVIGATE_TO_FORM__onClick_ddd9f79a70dc4fe3859de1d5227d3cbd",
            "type": "NAVIGATE_TO_FORM",
            "formId": "frmTransferTo",
            "formKUID": "fea76ed3e2f44191965c1ee2fb5f03e6",
            "mappings": {},
            "mappingsOrder": [],
            "parentId": "",
            "callbackType": null,
            "enableMappingEditor": true,
            "package": "",
            "navigationObj": "{\n    \"_meta_\": {\n        \"eventName\": \"onClick\",\n        \"widgetId\": \"flxBack\"\n    }\n}",
            "isCustomInput": false
        }]
    }
}