{
    "AS_FlexContainer_i357d8219c1b45c5bad4e53339f4e413": {
        "id": "AS_FlexContainer_i357d8219c1b45c5bad4e53339f4e413",
        "type": "ACTION_SEQUENCE",
        "params": [{
            "datatype": "collection",
            "name": "eventobject"
        }],
        "language": "js",
        "actions": [{
            "id": "NAVIGATE_TO_FORM__onClick_d91a89579c2f41dcbef55efa49228bc7",
            "type": "NAVIGATE_TO_FORM",
            "formId": "frmTransferAmount",
            "formKUID": "bde094f32c7948fcbd820b6474393e73",
            "mappings": {},
            "mappingsOrder": [],
            "parentId": "",
            "callbackType": null,
            "enableMappingEditor": true,
            "package": "",
            "navigationObj": "{\n    \"_meta_\": {\n        \"eventName\": \"onClick\",\n        \"widgetId\": \"flxBack\"\n    }\n}",
            "isCustomInput": false
        }]
    }
}