{
    "AS_Form_a7511ee92f99486b9ec32c83da0437ff": {
        "id": "AS_Form_a7511ee92f99486b9ec32c83da0437ff",
        "type": "ACTION_SEQUENCE",
        "params": [{
            "datatype": "collection",
            "name": "eventobject"
        }],
        "contextObj": {
            "name": "frmCheckDepositFrom",
            "type": "forms",
            "platform": "",
            "KUID": "ea44af6298104be9b0bc323d1197575d"
        },
        "language": "js",
        "actions": [{
            "id": "INVOKE_FUNCTION___ab7ef9b111784a2983e36b7a52e93dba",
            "type": "INVOKE_FUNCTION",
            "display": "<>",
            "inputparams": [],
            "parentId": null,
            "callbackType": null,
            "disabled": null,
            "source": "module"
        }]
    }
}