{
    "AS_FlexContainer_a21af79b6a0d4463b3751c75921682f9": {
        "id": "AS_FlexContainer_a21af79b6a0d4463b3751c75921682f9",
        "type": "ACTION_SEQUENCE",
        "params": [{
            "datatype": "collection",
            "name": "eventobject"
        }],
        "language": "js",
        "actions": [{
            "id": "NAVIGATE_TO_FORM__onClick_c591065dc80649e19b88557e552fe97c",
            "type": "NAVIGATE_TO_FORM",
            "formId": "frmDashboardAggregated",
            "formKUID": "ea86369dacd6416e998c3919eb3f15fc",
            "mappings": {},
            "mappingsOrder": [],
            "parentId": "",
            "callbackType": null,
            "enableMappingEditor": true,
            "package": "",
            "navigationObj": "{\n    \"_meta_\": {\n        \"eventName\": \"\",\n        \"widgetId\": \"\"\n    }\n}",
            "isCustomInput": false
        }]
    }
}