{
    "AS_FlexContainer_f077cea1337c492d8ed4b69d961ebed1": {
        "id": "AS_FlexContainer_f077cea1337c492d8ed4b69d961ebed1",
        "type": "ACTION_SEQUENCE",
        "params": [{
            "datatype": "collection",
            "name": "eventobject"
        }],
        "contextObj": {
            "name": "frmDashboardAggregated",
            "type": "forms",
            "platform": "",
            "KUID": "ea86369dacd6416e998c3919eb3f15fc"
        },
        "language": "js",
        "actions": [{
            "id": "NAVIGATE_TO_FORM___fedbbe45dd7a467bb03b5d1a8753a0a4",
            "type": "NAVIGATE_TO_FORM",
            "formId": "frmPFM",
            "formKUID": "f289a9e3929548d0bd9e7ca725aadc82",
            "mappings": {},
            "mappingsOrder": [],
            "parentId": "",
            "callbackType": null,
            "enableMappingEditor": true,
            "package": "",
            "navigationObj": "{\n    \"_meta_\": {\n        \"eventName\": \"\",\n        \"widgetId\": \"\"\n    }\n}",
            "isCustomInput": false
        }]
    }
}