{
    "AS_Image_j3b0c519e6e54410bee5541a69ac760f": {
        "id": "AS_Image_j3b0c519e6e54410bee5541a69ac760f",
        "type": "ACTION_SEQUENCE",
        "params": [{
            "datatype": "collection",
            "name": "eventobject"
        }, {
            "datatype": "string",
            "name": "x"
        }, {
            "datatype": "string",
            "name": "y"
        }],
        "contextObj": {
            "name": "frmCheck2",
            "type": "forms",
            "platform": null,
            "KUID": "a4c539130ea144d4b848df755d3e03e4"
        },
        "language": "js",
        "actions": [{
            "id": "NAVIGATE_TO_FORM___h637b67843ae403498082bf19674c511",
            "type": "NAVIGATE_TO_FORM",
            "formId": "frmScaning",
            "formKUID": "eac909c5783e4800a0fc574c393e07e8",
            "mappings": {},
            "mappingsOrder": [],
            "parentId": "",
            "callbackType": null,
            "enableMappingEditor": true,
            "package": "",
            "navigationObj": "{\n    \"_meta_\": {\n        \"eventName\": \"onTouchEnd\",\n        \"widgetId\": \"Image0fe32af4553f34e\"\n    }\n}",
            "isCustomInput": false
        }]
    }
}