{
    "AS_Label_h8d30ef6f3d84bd7a7699a11b75d0bc6": {
        "id": "AS_Label_h8d30ef6f3d84bd7a7699a11b75d0bc6",
        "type": "ACTION_SEQUENCE",
        "params": [{
            "datatype": "collection",
            "name": "eventobject"
        }, {
            "datatype": "string",
            "name": "x"
        }, {
            "datatype": "string",
            "name": "y"
        }],
        "contextObj": {
            "name": "frmTransferAmount",
            "type": "forms",
            "platform": "",
            "KUID": "bde094f32c7948fcbd820b6474393e73"
        },
        "language": "js",
        "actions": [{
            "id": "INVOKE_FUNCTION___i2488c564c5f44fa977407dc5411fbc3",
            "type": "INVOKE_FUNCTION",
            "sequenceKUID": "onClickKey",
            "display": "onClickKey",
            "inputparams": [{
                "name": "selectedValue",
                "value": "8"
            }],
            "parentId": null,
            "callbackType": null,
            "disabled": null,
            "source": "controller"
        }]
    }
}