{
    "AS_Segment_aabbdb42f9524c2e8efb4adffb2981e1": {
        "id": "AS_Segment_aabbdb42f9524c2e8efb4adffb2981e1",
        "type": "ACTION_SEQUENCE",
        "params": [{
            "datatype": "collection",
            "name": "eventobject"
        }, {
            "datatype": "number",
            "name": "sectionNumber"
        }, {
            "datatype": "number",
            "name": "rowNumber"
        }],
        "contextObj": {
            "name": "frmDashboardAggregated",
            "type": "forms",
            "platform": "",
            "KUID": "ea86369dacd6416e998c3919eb3f15fc"
        },
        "language": "js",
        "actions": [{
            "id": "ADD_SNIPPET__a0d9ac7ace164b94bd912d934c6f4aa5",
            "type": "ADD_SNIPPET",
            "codeSnippet": "Account = this.view.compSegHdrWithImgText1.segAccRecords.selectedRowItems[0];\nnavToRespForm(\"frmAccountDetails\");",
            "parentId": null,
            "callbackType": null
        }]
    }
}