{
    "@class": "com.kony.gen.viz.model.component.KVizButton",
    "DNDConfig": null,
    "__parentReadjusting__": false,
    "_height_": {
        "type": "string",
        "value": "16dp"
    },
    "_margin_": [
        6,
        6,
        6,
        6
    ],
    "_padding_": [
        0,
        0,
        0,
        0
    ],
    "_right_": {
        "type": "string",
        "value": "10dp"
    },
    "_skin_": "s4ef668d79104dee83087bb315d40dee",
    "_text_": "",
    "_top_": {
        "type": "string",
        "value": "10dp"
    },
    "_width_": {
        "type": "string",
        "value": "16dp"
    },
    "android": {
        "psp": {
            "pressedSkin": "s4ef668d79104dee83087bb315d40dee"
        }
    },
    "canUpdateUI": true,
    "containerweight": 100,
    "contentalignment": 5,
    "disabledSkins": {},
    "displaytext": true,
    "focusskin": "s4ef668d79104dee83087bb315d40dee",
    "id": "Button0a00a22369f244a",
    "info": null,
    "iscustomlayout": false,
    "isvisible": true,
    "kuid": "cb54eab5abda4753a5ad2f8ffde4f548",
    "name": "kony.ui.Button",
    "ontouchend": "AS_Button_bf6f3b4e7e034a8fba7908b614da8827",
    "parent": "FlexGroup0e651f43f0cef47",
    "pf": "frmNAconfrmation",
    "retaincontentalignment": false,
    "retainflexpositionproperties": false,
    "wType": "Button",
    "zindex": 1
}