{
    "AS_Button_a45a5d791ea44361b188d7a9fc08a8dd": {
        "id": "AS_Button_a45a5d791ea44361b188d7a9fc08a8dd",
        "type": "ACTION_SEQUENCE",
        "params": [{
            "datatype": "collection",
            "name": "eventobject"
        }],
        "contextObj": {
            "name": "Form1",
            "type": "forms",
            "platform": null,
            "KUID": "af1a062912e543e8a3845195b143d49d"
        },
        "language": "js",
        "actions": [{
            "id": "ADD_SNIPPET__db48a3f31a084e9a8a1de05ec0170f59",
            "type": "ADD_SNIPPET",
            "codeSnippet": "this.view.donutchart.createChart([\n                {\n                    \"colorCode\": \"#e02020\",\n                    \"label\": \"Data1\",\n                    \"value\": \"21\"\n                },\n                {\n                    \"colorCode\": \"#f7b500\",\n                    \"label\": \"Data2\",\n                    \"value\": \"21\"\n                },\n                {\n                    \"colorCode\": \"#6dd400\",\n                    \"label\": \"Data3\",\n                    \"value\": \"15\"\n                },\n                {\n                    \"colorCode\": \"#000000\",\n                    \"label\": \"Data4\",\n                    \"value\": \"25\"\n                },\n                {\n                    \"colorCode\": \"#ffffff\",\n                    \"label\": \"Data5\",\n                    \"value\": \"25\"\n                }\n            ])",
            "parentId": null,
            "callbackType": null
        }]
    }
}