{
    "AS_Image_d43618599d5946afbc25f1856b09782c": {
        "id": "AS_Image_d43618599d5946afbc25f1856b09782c",
        "type": "ACTION_SEQUENCE",
        "params": [{
            "datatype": "collection",
            "name": "eventobject"
        }, {
            "datatype": "string",
            "name": "x"
        }, {
            "datatype": "string",
            "name": "y"
        }],
        "contextObj": {
            "name": "frmLogin",
            "type": "forms",
            "platform": "",
            "KUID": "hebebbc0474e4e3b8baec48da9de9ab0"
        },
        "language": "js",
        "actions": [{
            "id": "ADD_SNIPPET__c0f33d97dacd40fc9f01758545d3fdfe",
            "type": "ADD_SNIPPET",
            "codeSnippet": "if(this.view.imgRememberMe.src==\"switchon.png\"){\n  this.view.imgRememberMe.src=\"switchoff.png\";\n}else{\n  this.view.imgRememberMe.src=\"switchon.png\";\n}",
            "parentId": null,
            "callbackType": null
        }]
    }
}