{
    "AS_TextField_i7e0f7d569664948877d7913924f3ebe": {
        "id": "AS_TextField_i7e0f7d569664948877d7913924f3ebe",
        "type": "ACTION_SEQUENCE",
        "params": [{
            "datatype": "collection",
            "name": "eventobject"
        }, {
            "datatype": "string",
            "name": "x"
        }, {
            "datatype": "string",
            "name": "y"
        }],
        "contextObj": {
            "name": "frmLogin",
            "type": "forms",
            "platform": "",
            "KUID": "hebebbc0474e4e3b8baec48da9de9ab0"
        },
        "language": "js",
        "actions": [{
            "id": "ADD_SNIPPET__a92082087d6946d99bea4c3f50e4c191",
            "type": "ADD_SNIPPET",
            "codeSnippet": "this.view.flxLine2.height=\"2dp\";\nthis.view.flxLine2.skin=\"sknFlxLineGrad\";\n\nthis.view.flxLine.height=\"1dp\";\nthis.view.flxLine.skin=\"sknFlxLineBg\";",
            "parentId": null,
            "callbackType": null
        }]
    }
}