{
    "@class": "com.kony.gen.viz.model.component.KVizUserWidget",
    "DNDConfig": null,
    "__parentReadjusting__": false,
    "_android_": {},
    "_androidwearos_": {},
    "_children_": [],
    "_height_": {
        "type": "string",
        "value": "320dp"
    },
    "_iphone_": {},
    "_left_": {
        "type": "string",
        "value": "0dp"
    },
    "_margin_": [
        0,
        0,
        0,
        0
    ],
    "_orientation_": 1,
    "_padding_": [
        0,
        0,
        0,
        0
    ],
    "_percent_": true,
    "_skin_": "s9a7f7c648074cd2b2c223d1773f1755",
    "_spa_": {},
    "_spaan_": {},
    "_spabb_": {},
    "_spaip_": {},
    "_top_": {
        "type": "string",
        "value": "-21dp"
    },
    "_vizProps_": {
        "hidewidgethierarchy": false
    },
    "_width_": {
        "type": "string",
        "value": "95%"
    },
    "_windows8_": {},
    "_winphone8_": {},
    "areflexpropsreferenced": false,
    "autogrowmode": 0,
    "canUpdateUI": true,
    "centerx": {
        "type": "string",
        "value": "50%"
    },
    "clipbounds": true,
    "containerweight": 0,
    "dataDiffs": {
        "compSegfornewAccount": {
            "__events__": {},
            "__info__": {
                "isRoot": true,
                "kuid": "h32b0667bcbf4446aa073c517380bcc4",
                "srcKUID": "ic15890f98fa4d01bebb61a7605202d7",
                "wType": "FlexContainer"
            },
            "autogrowMode": {
                "Default": 0
            },
            "height": {
                "Default": {
                    "type": "string",
                    "value": "320dp"
                }
            },
            "top": {
                "Default": {
                    "type": "string",
                    "value": "-21dp"
                }
            }
        },
        "segAccRecords": {
            "__events__": {},
            "__info__": {
                "kuid": "a4e3704b63f04340a912517bfe726596",
                "srcKUID": "e3182045502c4908bdce90bc4a30beac",
                "wType": "Segment"
            },
            "autogrowMode": {
                "Default": 0
            },
            "height": {
                "Default": {
                    "type": "string",
                    "value": "270dp"
                }
            }
        }
    },
    "enablescrolling": true,
    "id": "compSegfornewAccount1",
    "info": null,
    "iscustomlayout": false,
    "isdatareferenced": false,
    "issegmentchild": false,
    "isvisible": true,
    "kuid": "h32b0667bcbf4446aa073c517380bcc4",
    "layouttype": 2,
    "masterType": 0,
    "name": "kony.ui.UserWidgetInstance",
    "parent": "FlexContainer0b8b827c81fbb49",
    "pf": "frmApplyNewAccount",
    "retaincontentalignment": false,
    "retainflexpositionproperties": false,
    "retainflowhorizontalalignment": false,
    "snapgridsize": 10,
    "snaptogrid": true,
    "sourceUserWidget": "ic15890f98fa4d01bebb61a7605202d7",
    "wType": "UserWidgetInstance"
}