{
    "classname": "donutchart4",
    "definitions": {
        "apis": {
            "custom": [
                {
                    "group": "General",
                    "kuid": "e702746c2a88487a986f061c5bf61347",
                    "paramList": [
                        {
                            "name": "dataSet"
                        }
                    ],
                    "propertyKey": "createChart",
                    "pw": {
                        "displayName": "createChart",
                        "uiRepresentation": "Label-Label-Button-Button"
                    },
                    "srcWgtKUID": "u980e920650247cc9de0d36e28716afa",
                    "type": "event"
                }
            ],
            "passthrough": []
        },
        "events": {
            "custom": [],
            "passthrough": []
        },
        "groups": {
            "apis": [
                "General"
            ],
            "events": [],
            "properties": [
                "Title",
                "Legend"
            ],
            "widgets": []
        },
        "properties": {
            "custom": [
                {
                    "access": "Write",
                    "defaultValue": true,
                    "group": "Legend",
                    "kuid": "fb12eba3742c419aac73c0544761ce6d",
                    "originalPropertyKey": "enableLegend",
                    "propertyIndex": 1,
                    "propertyKey": "enableLegend",
                    "pw": {
                        "displayName": "Enable Legends",
                        "uiRepresentation": "Label-Radiobuttongroup"
                    },
                    "srcWgtKUID": "u980e920650247cc9de0d36e28716afa",
                    "type": "boolean",
                    "value": "true/false"
                },
                {
                    "access": "Write",
                    "defaultValue": "#ffffff",
                    "group": "General",
                    "kuid": "h535e4bf919d4610b2bdcc54b6ee6fe6",
                    "originalPropertyKey": "bgColor",
                    "propertyIndex": 1,
                    "propertyKey": "bgColor",
                    "pw": {
                        "displayName": "Background Color",
                        "uiRepresentation": "Label-Textbox"
                    },
                    "srcWgtKUID": "u980e920650247cc9de0d36e28716afa",
                    "type": "string",
                    "value": ""
                },
                {
                    "access": "Write",
                    "defaultValue": {
                        "data": [
                            {
                                "colorCode": "#f7b500",
                                "label": "Data1",
                                "value": "53"
                            },
                            {
                                "colorCode": "#e7e7e7",
                                "label": "Data2",
                                "value": "47"
                            },
                            {
                                "colorCode": "#76C044",
                                "label": "Data3",
                                "value": "0"
                            },
                            {
                                "colorCode": "#FFC522",
                                "label": "Data4",
                                "value": "0"
                            },
                            {
                                "colorCode": "#97cded",
                                "label": "Data5",
                                "value": "0"
                            }
                        ],
                        "schema": [
                            {
                                "columnHeaderTemplate": null,
                                "columnHeaderText": "Label",
                                "columnHeaderType": "text",
                                "columnID": "label",
                                "columnText": "Not Defined",
                                "columnType": "text",
                                "kuid": "c8434b6cbed443e6a6167d99e8c3bdcb"
                            },
                            {
                                "columnHeaderTemplate": null,
                                "columnHeaderText": "Value",
                                "columnHeaderType": "text",
                                "columnID": "value",
                                "columnText": "Not Defined",
                                "columnType": "text",
                                "kuid": "cddb65c1fe8c429bb5a4b5f93bd171ef"
                            },
                            {
                                "columnHeaderTemplate": null,
                                "columnHeaderText": "Color Code",
                                "columnHeaderType": "text",
                                "columnID": "colorCode",
                                "columnText": "Not Defined",
                                "columnType": "text",
                                "kuid": "f722303b71a8439eae528d9af9856f30"
                            }
                        ]
                    },
                    "group": "General",
                    "kuid": "a3c6892a2d20466993d3af5224e6f0d5",
                    "originalPropertyKey": "chartData",
                    "propertyIndex": 1,
                    "propertyKey": "chartData",
                    "pw": {
                        "displayName": "Chart Data",
                        "uiRepresentation": "Label-DataGrid"
                    },
                    "srcWgtKUID": "u980e920650247cc9de0d36e28716afa",
                    "type": "data grid",
                    "value": 3
                },
                {
                    "access": "Write",
                    "defaultValue": "12",
                    "group": "Title",
                    "kuid": "j9b86d146ca445459d4779695bf3758f",
                    "originalPropertyKey": "titleFontSize",
                    "propertyIndex": 1,
                    "propertyKey": "titleFontSize",
                    "pw": {
                        "displayName": "Title Font Size",
                        "uiRepresentation": "Label-Textbox"
                    },
                    "srcWgtKUID": "u980e920650247cc9de0d36e28716afa",
                    "type": "string",
                    "value": ""
                },
                {
                    "access": "Write",
                    "defaultValue": true,
                    "group": "General",
                    "kuid": "ac238f9bb66b491f949a969e92a3970e",
                    "originalPropertyKey": "enableChartAnimation",
                    "propertyIndex": 1,
                    "propertyKey": "enableChartAnimation",
                    "pw": {
                        "displayName": "Enable Chart Animation",
                        "uiRepresentation": "Label-Radiobuttongroup"
                    },
                    "srcWgtKUID": "u980e920650247cc9de0d36e28716afa",
                    "type": "boolean",
                    "value": "true/false"
                },
                {
                    "access": "Write",
                    "defaultValue": "",
                    "group": "Title",
                    "kuid": "j9ec4c474e1644b8b420d2d32e8354f7",
                    "originalPropertyKey": "chartTitle",
                    "propertyIndex": 2,
                    "propertyKey": "chartTitle",
                    "pw": {
                        "displayName": "Chart Title",
                        "uiRepresentation": "Label-Textbox"
                    },
                    "srcWgtKUID": "u980e920650247cc9de0d36e28716afa",
                    "type": "string",
                    "value": ""
                },
                {
                    "access": "Write",
                    "defaultValue": "8",
                    "group": "Legend",
                    "kuid": "a8286359eb204d029f0921d28f476915",
                    "originalPropertyKey": "legendFontSize",
                    "propertyIndex": 2,
                    "propertyKey": "legendFontSize",
                    "pw": {
                        "displayName": "Legend Font Size",
                        "uiRepresentation": "Label-Textbox"
                    },
                    "srcWgtKUID": "u980e920650247cc9de0d36e28716afa",
                    "type": "string",
                    "value": ""
                },
                {
                    "access": "Write",
                    "defaultValue": true,
                    "group": "General",
                    "kuid": "c98aed247cc84c23823b81e82bfee45b",
                    "originalPropertyKey": "enableStaticPreview",
                    "propertyIndex": 2,
                    "propertyKey": "enableStaticPreview",
                    "pw": {
                        "displayName": "Enable Static Preview",
                        "uiRepresentation": "Label-Radiobuttongroup"
                    },
                    "srcWgtKUID": "u980e920650247cc9de0d36e28716afa",
                    "type": "boolean",
                    "value": "true/false"
                },
                {
                    "access": "Write",
                    "defaultValue": "#000000",
                    "group": "Title",
                    "kuid": "a1b1470b92294bf9b3c1aad63ff65768",
                    "originalPropertyKey": "titleFontColor",
                    "propertyIndex": 3,
                    "propertyKey": "titleFontColor",
                    "pw": {
                        "displayName": "Title Font Color",
                        "uiRepresentation": "Label-Textbox"
                    },
                    "srcWgtKUID": "u980e920650247cc9de0d36e28716afa",
                    "type": "string",
                    "value": ""
                },
                {
                    "access": "Write",
                    "defaultValue": "#000000",
                    "group": "Legend",
                    "kuid": "bf9fa937d6564309ac97d93d398004b7",
                    "originalPropertyKey": "legendFontColor",
                    "propertyIndex": 3,
                    "propertyKey": "legendFontColor",
                    "pw": {
                        "displayName": "Legend Font Color",
                        "uiRepresentation": "Label-Textbox"
                    },
                    "srcWgtKUID": "u980e920650247cc9de0d36e28716afa",
                    "type": "string",
                    "value": ""
                }
            ],
            "passthrough": []
        },
        "widgets": {
            "expose": [],
            "passthrough": []
        }
    },
    "namespace": "com.konymp",
    "version": "1.0.0"
}