{
    "@class": "com.kony.gen.viz.model.component.KVizButton",
    "DNDConfig": null,
    "__parentReadjusting__": false,
    "_height_": {
        "type": "string",
        "value": "7%"
    },
    "_left_": {
        "type": "string",
        "value": "50dp"
    },
    "_margin_": [
        6,
        6,
        6,
        6
    ],
    "_padding_": [
        0,
        0,
        0,
        0
    ],
    "_skin_": "sd5f1d35ddda4717bb5866eeda8c5946",
    "_text_": "Get Started",
    "_top_": {
        "type": "string",
        "value": "88%"
    },
    "_width_": {
        "type": "string",
        "value": "75%"
    },
    "canUpdateUI": true,
    "centerx": {
        "type": "string",
        "value": "50%"
    },
    "containerweight": 100,
    "contentalignment": 5,
    "displaytext": true,
    "focusskin": "s873f377f2d9402f89591606d863e780",
    "id": "btnGetStarted",
    "info": null,
    "iphone": {
        "psp": {
            "showProgressIndicator": false
        }
    },
    "iscustomlayout": false,
    "isvisible": true,
    "kuid": "fffa5b64949c4151aa75fe9d98650ef5",
    "name": "kony.ui.Button",
    "onclick": "AS_Button_c46027f31c784d0dad7021c2f4e60264",
    "parent": "flxMain",
    "pf": "frmGetStarted2",
    "retaincontentalignment": false,
    "retainflexpositionproperties": false,
    "showprogressindicator": false,
    "wType": "Button",
    "zindex": 1
}