{
    "DNDConfig": null,
    "__parentReadjusting__": false,
    "_height_": {
        "type": "string",
        "value": "50dp"
    },
    "_margin_": [
        0,
        0,
        0,
        0
    ],
    "_orientation_": 6,
    "_padding_": [
        0,
        0,
        0,
        0
    ],
    "_percent_": true,
    "_skin_": "sf979cd7bef54fe085fd4373e628e7d7",
    "_top_": {
        "type": "string",
        "value": "400dp"
    },
    "_width_": {
        "type": "string",
        "value": "80%"
    },
    "allboxes": [],
    "autogrowmode": 0,
    "canUpdateUI": true,
    "centerx": {
        "type": "string",
        "value": "50%"
    },
    "children": [
        "txtNotes",
        "CopyflxLine0b0f8085572564d"
    ],
    "clipbounds": true,
    "containerweight": 100,
    "enablescrolling": true,
    "id": "flxNotes",
    "info": null,
    "iscustomlayout": false,
    "isvisible": true,
    "kuid": "a03f387c03964a53a2531e80bf55a5de",
    "layouttype": 2,
    "name": "kony.ui.FlexContainer",
    "parent": "flxTransferDetails",
    "pf": "frmVerifyTransferDetails",
    "retaincontentalignment": false,
    "retainflexpositionproperties": false,
    "retainflowhorizontalalignment": false,
    "snapgridsize": 10,
    "snaptogrid": true,
    "wType": "FlexContainer",
    "widgetalignment": 1,
    "zindex": 1
}